{
  "wstl": {
    "title": "Data adapters",
    "actions": [
      {
        "name": "heaserver-data-adapter-open",
        "description": "Open this data adapter",
        "type": "safe",
        "action": "read",
        "target": "item href cj",
        "prompt": "Open"
      },
      {
        "name": "heaserver-data-adapter-properties-form",
        "description": "View and edit this data adapter's properties",
        "type": "unsafe",
        "target": "item cj-template",
        "action": "update",
        "prompt": "Properties",
        "inputs": [
          {
            "name": "id",
            "prompt": "Id",
            "required": true,
            "readOnly": true
          },
          {
            "name": "source",
            "prompt": "Source"
          },
          {
            "name": "version",
            "prompt": "Version"
          },
          {
            "name": "display_name",
            "prompt": "Name",
            "required": true
          },
          {
            "name": "description",
            "prompt": "Description",
            "type": "textarea"
          },
          {
            "name": "owner",
            "prompt": "Owner"
          },
          {
            "name": "created",
            "prompt": "Created",
            "readOnly": true
          },
          {
            "name": "modified",
            "prompt": "Modified",
            "readOnly": true
          },
          {
            "name": "invited",
            "prompt": "Share invited",
            "readOnly": true
          },
          {
            "name": "shared_with",
            "prompt": "Shared with"
          },
          {
            "name": "derived_by",
            "prompt": "Derived by",
            "readOnly": true
          },
          {
            "name": "derived_from",
            "prompt": "Derived from",
            "readOnly": true
          },
          {
            "name": "base_url",
            "prompt": "Base URL",
            "readOnly": true
          },
          {
            "name": "resources",
            "prompt": "Resources",
            "readOnly": true
          }
        ]
      },
      {
        "name": "heaserver-data-adapter-duplicator-form",
        "description": "Duplicate this data adapter",
        "type": "unsafe",
        "target": "item cj-template",
        "action": "update",
        "prompt": "Duplicate",
        "inputs": [
          {
            "name": "id",
            "prompt": "Id",
            "required": true,
            "readOnly": true
          },
          {
            "name": "source",
            "prompt": "Source"
          },
          {
            "name": "version",
            "prompt": "Version"
          },
          {
            "name": "display_name",
            "prompt": "Name",
            "required": true
          },
          {
            "name": "description",
            "prompt": "Description",
            "type": "textarea"
          },
          {
            "name": "owner",
            "prompt": "Owner"
          },
          {
            "name": "created",
            "prompt": "Created",
            "readOnly": true
          },
          {
            "name": "modified",
            "prompt": "Modified",
            "readOnly": true
          },
          {
            "name": "invited",
            "prompt": "Share invited",
            "readOnly": true
          },
          {
            "name": "shared_with",
            "prompt": "Shared with"
          },
          {
            "name": "derived_by",
            "prompt": "Derived by",
            "readOnly": true
          },
          {
            "name": "derived_from",
            "prompt": "Derived from",
            "readOnly": true
          },
          {
            "name": "base_url",
            "prompt": "Base URL",
            "readOnly": true
          },
          {
            "name": "resources",
            "prompt": "Resources",
            "readOnly": true
          }
        ]
      }
    ]
  }
}